Data Journalism with R and the Tidyverse - 14 Aggregates
…
The first step of every analysis starts with the data being used. Then we apply functions to the data.

In our case, the pattern that you’ll use many, many times is: data %>% group_by(COLUMN NAME) %>% summarize(VARIABLE NAME = AGGREGATE FUNCTION(COLUMN NAME))

In our dataset, the column with recipient information is called “memo_text”

Here’s the code to count the number of contributions to each recipient:

maryland_winred_contributions %>%
  group_by(memo_text) %>%
  summarise(
    count_contribs = n()
  )

# A tibble: 519 × 2
   memo_text                                           count_contribs
   <chr>                                                        <int>
 1 Earmarked for ABRAHAM LINCOLN PAC (C00631051)                    3
 2 Earmarked for ADRIAN SMITH FOR CONGRESS (C00412890)              2
 3 Earmarked for AL FOR MONTANA (C00783381)                         1
 4 Earmarked for ALAMO PAC (C00387464)                              1
 5 Earmarked for ALAN SIMS FOR CONGRESS (C00784975)                 2
 6 Earmarked for ALASKANS FOR DAN SULLIVAN (C00570994)              5
 7 Earmarked for ALASKANS FOR NICK BEGICH (C00792341)               1
 8 Earmarked for ALEK FOR OREGON (C00715854)                      121
 9 Earmarked for ALEX FOR CONGRESS (C00771279)                      3
10 Earmarked for ALLCORN FOR COLORADO (C00798983)                   2
# … with 509 more rows
…
Inside the parentheses in summarize, we set up the summaries we want. In this case, we just want a count of the number of loans for each county grouping. The line of code count_contribs = n(), says create a new field, called count_contribs and set it equal to n(). n() is a function that counts the number of rows or records in each group. Why the letter n? The letter n is a common symbol used to denote a count of something. The number of things (or rows or observations or records) in a dataset? Statisticians call it n. There are n number of contributions in this dataset.

When we run that, we get a list of recipients with a count next to them. But it’s not in any order.

So we’ll add another “and then do this” symbol – %>% – and use a new function called arrange(). Arrange does what you think it does – it arranges data in order. By default, it’s in ascending order – smallest to largest. But if we want to know the county with the most loans, we need to sort it in descending order. That looks like this:

maryland_winred_contributions %>%
  group_by(memo_text) %>%
  summarise(
    count_contribs = n()
  ) %>%
  arrange(desc(count_contribs))

# A tibble: 519 × 2
   memo_text                                                          count_co…¹
   <chr>                                                                   <int>
 1 Earmarked for SAVE AMERICA JOINT FUNDRAISING COMMITTEE (C00770941)       7809
 2 Earmarked for NRSC (C00027466)                                           6497
 3 Earmarked for REPUBLICAN NATIONAL COMMITTEE (C00003418)                  4268
 4 Earmarked for NRCC (C00075820)                                           3945
 5 Earmarked for TEAM SCALISE (C00750521)                                   2477
 6 Earmarked for KEVIN MCCARTHY FOR CONGRESS (C00420935)                    1461
 7 Earmarked for MARCO RUBIO FOR SENATE (C00620518)                         1326
 8 Earmarked for RON JOHNSON FOR SENATE, INC. (C00482984)                    974
 9 Earmarked for JOHN KENNEDY FOR US (C00608398)                             955
10 Earmarked for TIM SCOTT FOR SENATE (C00540302)                            915
# … with 509 more rows, and abbreviated variable name ¹​count_contribs
…
The WinRed data contains a column detailing the date of the contribution: “date”.

We can group by “memo_text” and “date” to see how many contributions occurred on every date to every recipient. We’ll sort by recipient and then date

maryland_winred_contributions %>%
  group_by(memo_text, date) %>%
  summarise(
    count_contribs = n()
  ) %>%
  arrange(memo_text, date)

`summarise()` has grouped output by 'memo_text'. You can override using the
`.groups` argument.

# A tibble: 9,194 × 3
# Groups:   memo_text [519]
   memo_text                                           date       count_contribs
   <chr>                                               <date>              <int>
 1 Earmarked for ABRAHAM LINCOLN PAC (C00631051)       2022-06-27              1
 2 Earmarked for ABRAHAM LINCOLN PAC (C00631051)       2022-06-28              1
 3 Earmarked for ABRAHAM LINCOLN PAC (C00631051)       2022-06-30              1
 4 Earmarked for ADRIAN SMITH FOR CONGRESS (C00412890) 2022-04-01              1
 5 Earmarked for ADRIAN SMITH FOR CONGRESS (C00412890) 2022-06-27              1
 6 Earmarked for AL FOR MONTANA (C00783381)            2022-06-04              1
 7 Earmarked for ALAMO PAC (C00387464)                 2022-05-16              1
 8 Earmarked for ALAN SIMS FOR CONGRESS (C00784975)    2022-04-23              1
 9 Earmarked for ALAN SIMS FOR CONGRESS (C00784975)    2022-05-23              1
10 Earmarked for ALASKANS FOR DAN SULLIVAN (C00570994) 2022-04-22              1
# … with 9,184 more rows
14.4 Other summarization methods: summing, mean, median, min and max

In the last example, we grouped like records together and counted them, but there’s so much more we can to summarize each group.

Let’s say we wanted to know the total dollar amount of contributions to each recipient? For that, we could use the sum() function to add up all of the loan values in the column “amount”. We put the column we want to total – “amount” – inside the sum() function sum(amount). Note that we can simply add a new summarize function here, keeping our count_contribs field in our output table.

maryland_winred_contributions %>%
  group_by(memo_text) %>%
  summarise(
    count_contribs = n(),
    total_amount = sum(amount)
  ) %>%
  arrange(desc(total_amount))

# A tibble: 519 × 3
   memo_text                                                     count…¹ total…²
   <chr>                                                           <int>   <dbl>
 1 Earmarked for SAVE AMERICA JOINT FUNDRAISING COMMITTEE (C007…    7809 220155.
 2 Earmarked for NRSC (C00027466)                                   6497 149673.
 3 Earmarked for NRCC (C00075820)                                   3945 118658.
 4 Earmarked for REPUBLICAN NATIONAL COMMITTEE (C00003418)          4268 111955.
 5 Earmarked for NICOLEE AMBROSE FOR CONGRESS (C00812891)            150  67980.
 6 Earmarked for TEAM SCALISE (C00750521)                           2477  51709.
 7 Earmarked for PARROTT FOR CONGRESS (C00691931)                    346  45243.
 8 Earmarked for MARCO RUBIO FOR SENATE (C00620518)                 1326  43279.
 9 Earmarked for KEVIN MCCARTHY FOR CONGRESS (C00420935)            1461  29612.
10 Earmarked for RON JOHNSON FOR SENATE, INC. (C00482984)            974  29611.
# … with 509 more rows, and abbreviated variable names ¹​count_contribs,
#   ²​total_amount

We can also calculate the average amount for each recipient – the mean – and the amount that sits at the midpoint of our data – the median.

maryland_winred_contributions %>%
  group_by(memo_text) %>%
  summarise(
    count_contribs = n(),
    total_amount = sum(amount),
    mean_amount = mean(amount),
    median_amount = median(amount)
  ) %>%
  arrange(desc(count_contribs))

# A tibble: 519 × 5
   memo_text                                     count…¹ total…² mean_…³ media…⁴
   <chr>                                           <int>   <dbl>   <dbl>   <dbl>
 1 Earmarked for SAVE AMERICA JOINT FUNDRAISING…    7809 220155.    28.2    20  
 2 Earmarked for NRSC (C00027466)                   6497 149673.    23.0    12.5
 3 Earmarked for REPUBLICAN NATIONAL COMMITTEE …    4268 111955.    26.2    18  
 4 Earmarked for NRCC (C00075820)                   3945 118658.    30.1    25  
 5 Earmarked for TEAM SCALISE (C00750521)           2477  51709.    20.9    10  
 6 Earmarked for KEVIN MCCARTHY FOR CONGRESS (C…    1461  29612.    20.3    10  
 7 Earmarked for MARCO RUBIO FOR SENATE (C00620…    1326  43279.    32.6    20.2
 8 Earmarked for RON JOHNSON FOR SENATE, INC. (…     974  29611.    30.4    25  
 9 Earmarked for JOHN KENNEDY FOR US (C00608398)     955  26433.    27.7    15  
10 Earmarked for TIM SCOTT FOR SENATE (C0054030…     915  29095.    31.8    10  
# … with 509 more rows, and abbreviated variable names ¹​count_contribs,
#   ²​total_amount, ³​mean_amount, ⁴​median_amount
…
What about the highest and lowest amounts for each recipient? For that, we can use the min() and max() functions.

maryland_winred_contributions %>%
  group_by(memo_text) %>%
  summarise(
    count_contribs = n(),
    total_amount = sum(amount),
    mean_amount = mean(amount),
    median_amount = median(amount),
    min_amount = min(amount),
    max_amount = max(amount)
  ) %>%
  arrange(desc(max_amount))

# A tibble: 519 × 7
   memo_text                     count…¹ total…² mean_…³ media…⁴ min_a…⁵ max_a…⁶
   <chr>                           <int>   <dbl>   <dbl>   <dbl>   <dbl>   <dbl>
 1 Earmarked for ALASKANS FOR D…       5   7304   1461.      500    1       5800
 2 Earmarked for AMAL FOR CONGR…      30  10442.   348.       25    1       5800
 3 Earmarked for BLAKE MASTERS …      24   6780    282.       25   10       5800
 4 Earmarked for FRIENDS OF MIK…     358  17711.    49.5      10    0.5     5800
 5 Earmarked for FRIENDS OF TOD…      75  14833.   198.        5    0.2     5800
 6 Earmarked for GALLUCH FOR CO…       1   5800   5800      5800 5800       5800
 7 Earmarked for KELLY FOR ALAS…      54   7900    146.       25    5       5800
 8 Earmarked for LAWLER FOR CON…       1   5800   5800      5800 5800       5800
 9 Earmarked for LAXALT FOR SEN…     334  26920.    80.6      25    0.77    5800
10 Earmarked for MCHENRY FOR CO…       3   6800   2267.      500  500       5800
# … with 509 more rows, and abbreviated variable names ¹​count_contribs,
#   ²​total_amount, ³​mean_amount, ⁴​median_amount, ⁵​min_amount, ⁶​max_amount

From this, we can see that some committees focus on small-dollar donors while others ask for (and get) larger amounts. This pattern isn’t random: campaigns make choices about how they will raise money.

It would be interesting to see what the largest donation was. To do that, we could simply take our original data set and sort it from highest to lowest on the amount.

maryland_winred_contributions %>%
  arrange(desc(amount))

# A tibble: 54,247 × 24
   linen…¹ fec_c…² tran_id flag_…³ org_n…⁴ last_…⁵ first…⁶ middl…⁷ prefix suffix
   <chr>   <chr>   <chr>   <chr>   <lgl>   <chr>   <chr>   <lgl>   <lgl>  <lgl> 
 1 SA11AI  C00694… A9EF36… IND     NA      Hansher Beth    NA      NA     NA    
 2 SA11AI  C00694… A64BB5… IND     NA      Leishm… Alexan… NA      NA     NA    
 3 SA11AI  C00694… A5835B… IND     NA      Bode    John    NA      NA     NA    
 4 SA11AI  C00694… AE3AF0… IND     NA      Gallag… Daniel  NA      NA     NA    
 5 SA11AI  C00694… AC5569… IND     NA      Bode    Denise  NA      NA     NA    
 6 SA11AI  C00694… A2B1EB… IND     NA      Kaplan  Joel    NA      NA     NA    
 7 SA11AI  C00694… A2D9CC… IND     NA      Freas   Dustin  NA      NA     NA    
 8 SA11AI  C00694… A8F4D9… IND     NA      Monahan Tom     NA      NA     NA    
 9 SA11AI  C00694… A3E262… IND     NA      powers  rick    NA      NA     NA    
10 SA11AI  C00694… AD5034… IND     NA      JonesL… Brien   NA      NA     NA    
# … with 54,237 more rows, 14 more variables: address_one <chr>,
#   address_two <chr>, city <chr>, state <chr>, zip <dbl>, prigen <lgl>,
#   date <date>, amount <dbl>, aggregate_amount <dbl>, employer <chr>,
#   occupation <chr>, memo_code <lgl>, memo_text <chr>, cycle <dbl>, and
#   abbreviated variable names ¹​linenumber, ²​fec_committee_id, ³​flag_orgind,
#   ⁴​org_name, ⁵​last_name, ⁶​first_name, ⁷​middle_name
…
