Data Journalism with R and the Tidyverse - 27 Basic Stats: Linear Regression and The T-Test
…
state_name

vote_2016: whether Trump or Clinton won the state’s electoral vote.

pct_trump: the percentage of the vote Trump received in the state.

businesses_receiving_ppe_pct: the percentage of the state’s small businesses that received a PPP loan.

ppe_amount_per_employee: the average amount of money provided by PPP per small business employee in the state.

reveal_data <- read_rds("data/reveal_data.rds")

reveal_data

# A tibble: 51 × 5
   state_name   vote_2016 pct_trump businesses_receiving_ppe_pct ppe_amount_pe…¹
   <chr>        <chr>         <dbl>                        <dbl>           <dbl>
 1 North Dakota Trump          63.0                           58            7928
 2 Nebraska     Trump          58.8                           56            7244
 3 South Dakota Trump          61.5                           53            6541
 4 Oklahoma     Trump          65.3                           50            6499
 5 Mississippi  Trump          57.9                           49            5674
 6 Iowa         Trump          51.2                           48            6642
 7 Kansas       Trump          56.6                           47            7087
 8 Hawaii       Clinton        29.4                           47            7417
 9 Maine        Clinton        43.5                           45            6617
10 Arkansas     Trump          60.6                           44            5549
# … with 41 more rows, and abbreviated variable name ¹​ppe_amount_per_employee
…
