Data Journalism with R and the Tidyverse - 20 Intro to APIs: The Census
…
To use the API, you need an API key. To get that, you need to apply for an API key with the Census Bureau. It takes a few minutes and you need to activate your key via email. Once you have your key, you need to set that for this session. Just FYI: Your key is your key. Do not share it around.

census_api_key("YOUR KEY HERE", install=TRUE)

The two main functions in tidycensus are get_decennial, which retrieves data from the 2000 and 2010 Censuses (and soon the 2020 Census), and get_acs, which pulls data from the American Community Survey, a between-Censuses annual survey that provides estimates, not hard counts, but asks more detailed questions. If you’re new to Census data, there’s a very good set of slides from Kyle Walker, the creator of tidycensus, and he’s working on a book that you can read for free online.

It’s important to keep in mind that Census data represents people - you, your neighbors and total strangers. It also requires some level of definitions, especially about race & ethnicity, that may or may not match how you define yourself or how others define themselves.

So to give you some idea of how complicated the data is, let’s pull up just one file from the decennial Census. We’ll use Summary File 1, or SF1. That has the major population and housing stuff.

sf1 <- load_variables(2010, "sf1", cache = TRUE)

sf1

# A tibble: 8,959 × 3
   name    label                                concept         
   <chr>   <chr>                                <chr>           
 1 H001001 Total                                HOUSING UNITS   
 2 H002001 Total                                URBAN AND RURAL 
 3 H002002 Total!!Urban                         URBAN AND RURAL 
 4 H002003 Total!!Urban!!Inside urbanized areas URBAN AND RURAL 
 5 H002004 Total!!Urban!!Inside urban clusters  URBAN AND RURAL 
 6 H002005 Total!!Rural                         URBAN AND RURAL 
 7 H002006 Total!!Not defined for this file     URBAN AND RURAL 
 8 H003001 Total                                OCCUPANCY STATUS
 9 H003002 Total!!Occupied                      OCCUPANCY STATUS
10 H003003 Total!!Vacant                        OCCUPANCY STATUS
# … with 8,949 more rows

Note: There are thousands of variables in SF1. That’s not a typo. Open it in your environment by double clicking. As you scroll down, you’ll get an idea of what you’ve got to choose from.

If you think that’s crazy, try the SF3 file from 2000.

sf3 <- load_variables(2000, "sf3", cache = TRUE)

sf3

# A tibble: 16,520 × 3
   name    label                                       concept                  
   <chr>   <chr>                                       <chr>                    
 1 H001001 Total                                       HOUSING UNITS [1]        
 2 H002001 Total                                       UNWEIGHTED SAMPLE HOUSIN…
 3 H002002 Total!!Occupied                             UNWEIGHTED SAMPLE HOUSIN…
 4 H002003 Total!!Vacant                               UNWEIGHTED SAMPLE HOUSIN…
 5 H003001 Total                                       100-PERCENT COUNT OF HOU…
 6 H004001 Percent of occupied housing units in sample PERCENT OF HOUSING UNITS…
 7 H004002 Percent of vacant housing units in sample   PERCENT OF HOUSING UNITS…
 8 H005001 Total                                       URBAN AND RURAL [7]      
 9 H005002 Total!!Urban                                URBAN AND RURAL [7]      
10 H005003 Total!!Urban!!Inside urbanized areas        URBAN AND RURAL [7]      
# … with 16,510 more rows
…
Getting data from the 2006-2010 5-year ACS

What I’m going to do next is a lot, but each step is simple. I’m going to join the data together, so each county has one line of data. Then I’m going to rename some fields that repeat. Then I’m going to calculate the minimium and maximum value of the estimate using the margin of error. That’ll help me later. After that, I’m going to calculate a perent change and sort it by that change.

md10 %>%
  inner_join(md22, by=c("GEOID", "NAME")) %>%
  rename(estimate2010=estimate.x, estimate2022=estimate.y) %>%
  mutate(min2010 = estimate2010-moe.x, max2010 = estimate2010+moe.x, min2020 = estimate2022-moe.y, max2020 = estimate2022+moe.y) %>%
  select(-variable.x, -variable.y, -moe.x, -moe.y) %>%
  mutate(change = ((estimate2022-estimate2010)/estimate2010)*100) %>%
  arrange(change)

# A tibble: 24 × 9
   GEOID NAME             estim…¹ estim…² min2010 max2010 min2020 max2020 change
   <chr> <chr>              <dbl>   <dbl>   <dbl>   <dbl>   <dbl>   <dbl>  <dbl>
 1 24011 Caroline County…   58799   65326   56740   60858   61407   69245   11.1
 2 24039 Somerset County…   42443   52149   39092   45794   45533   58765   22.9
 3 24019 Dorchester Coun…   45151   57490   43470   46832   54445   60535   27.3
 4 24041 Talbot County, …   63017   81667   60081   65953   77376   85958   29.6
 5 24017 Charles County,…   88825  116882   87268   90382  115005  118759   31.6
 6 24035 Queen Anne's Co…   81096  108332   78068   84124  103346  113318   33.6
 7 24015 Cecil County, M…   64886   86869   63014   66758   83335   90403   33.9
 8 24031 Montgomery Coun…   93373  125583   92535   94211  123826  127340   34.5
 9 24027 Howard County, …  103273  140971  101654  104892  138849  143093   36.5
10 24045 Wicomico County…   50752   69421   49313   52191   66714   72128   36.8
# … with 14 more rows, and abbreviated variable names ¹​estimate2010,
#   ²​estimate2022
…
20.3 Sorting Results

You’ll notice that we’ve used arrange to sort the results of tidycensus functions, although that’s done after we create a new variable to hold the data. There’s another way to use arrange that you should know about, one that you can use for exploratory analysis. An example using median household income from 2022:

md22 <- get_acs(geography = "county",
              variables = c(medincome = "B19013_001"),
              state = "MD",
              year = 2022)

Getting data from the 2018-2022 5-year ACS

arrange(md22, desc(estimate))

# A tibble: 24 × 5
   GEOID NAME                          variable  estimate   moe
   <chr> <chr>                         <chr>        <dbl> <dbl>
 1 24027 Howard County, Maryland       medincome   140971  2122
 2 24009 Calvert County, Maryland      medincome   128078  4071
 3 24031 Montgomery County, Maryland   medincome   125583  1757
 4 24017 Charles County, Maryland      medincome   116882  1877
 5 24003 Anne Arundel County, Maryland medincome   116009  1642
 6 24021 Frederick County, Maryland    medincome   115724  2555
 7 24037 St. Mary's County, Maryland   medincome   113668  4210
 8 24013 Carroll County, Maryland      medincome   111672  3322
 9 24035 Queen Anne's County, Maryland medincome   108332  4986
10 24025 Harford County, Maryland      medincome   106417  2845
# … with 14 more rows
…
