Data Journalism with R and the Tidyverse - 19 Data Cleaning Part I: Data smells
…
Rows: 476915 Columns: 13
── Column specification ────────────────────────────────────────────────────────
Delimiter: ","
chr (5): county, precinct, office, candidate, party
dbl (6): district, votes, absentee, election_day, early_voting, mail
lgl (2): provisional, limited

ℹ Use `spec()` to retrieve the full column specification for this data.
ℹ Specify the column types or set `show_col_types = FALSE` to quiet this message.

Pay attention to the red warning that signals “one or more parsing issues.” It advises us to run the problems() function to see what went wrong. Let’s do that.

problems(texas_precinct_20)

# A tibble: 1,640 × 5
     row   col expected           actual file 
   <int> <int> <chr>              <chr>  <chr>
 1 28450    12 1/0/T/F/TRUE/FALSE 20     ""   
 2 28450    13 1/0/T/F/TRUE/FALSE 21     ""   
 3 28451    12 1/0/T/F/TRUE/FALSE 15     ""   
 4 28451    13 1/0/T/F/TRUE/FALSE 3      ""   
 5 28465    12 1/0/T/F/TRUE/FALSE 20     ""   
 6 28465    13 1/0/T/F/TRUE/FALSE 20     ""   
 7 28466    12 1/0/T/F/TRUE/FALSE 15     ""   
 8 28466    13 1/0/T/F/TRUE/FALSE 3      ""   
 9 28472    12 1/0/T/F/TRUE/FALSE 22     ""   
10 28472    13 1/0/T/F/TRUE/FALSE 17     ""   
# … with 1,630 more rows
…
The second smell we can find in code is missing data.

We can do that by grouping and counting columns. In addition to identifying the presence of NA values, this method will also give us a sense of the distribution of values in those columns.

Let’s start with the “mail” column, which represents the number of votes a candidate received in a precinct from ballots cast by mail. The following code groups by the mail column, counts the number in each group, and then sorts from highest to lowest. There are 402,345 NA values in this column. This is most of our rows, so that should give us some pause. Either counties didn’t report votes by mail as a separate category or called it something else. This will impact how we can describe the data.

texas_precinct_20 %>%
  group_by(mail) %>%
  summarise(
    count=n()
  ) %>%
  arrange(desc(count))

# A tibble: 30 × 2
    mail  count
   <dbl>  <int>
 1    NA 402345
 2     0  71589
 3     1   1708
 4     2    646
 5     3    277
 6     4    125
 7     5     79
 8     6     35
 9     7     21
10     8     21
# … with 20 more rows

Now let’s try the “provisional” column, which represents the number of accepted provisional votes cast. In this case, there are 135,073 NA values. The rest have different dollar amounts.

texas_precinct_20 %>%
  group_by(provisional) %>%
  summarise(
    count=n()
  ) %>%
  arrange(desc(count))

# A tibble: 27 × 2
   provisional  count
         <dbl>  <int>
 1          NA 473381
 2           0   2836
 3           1    210
 4           2    105
 5           3     69
 6           5     53
 7           4     44
 8           6     44
 9          10     29
10           7     27
# … with 17 more rows
…
ℹ Use `spec()` to retrieve the full column specification for this data.
ℹ Specify the column types or set `show_col_types = FALSE` to quiet this message.

Each row represents a current or previously registered voter in the county, along with information about that person and the political jurisdictions they reside in. When we talk about gaps, often they indicate the administrative boundaries. Here’s an example: let’s find the most recent registr_dt in this dataset:

yadkin_voters %>% arrange(desc(registr_dt))

# A tibble: 28,456 × 67
   count…¹ count…² voter…³ ncid  last_…⁴ first…⁵ middl…⁶ name_…⁷ statu…⁸ voter…⁹
     <dbl> <chr>   <chr>   <chr> <chr>   <chr>   <chr>   <chr>   <chr>   <chr>  
 1      99 YADKIN  000000… ER48… FINCAN… JOY     LYNN    <NA>    A       ACTIVE 
 2      99 YADKIN  000000… ER48… LUCK    ERIN    EILEEN  <NA>    A       ACTIVE 
 3      99 YADKIN  000000… ER37… OSBORNE EMILY   DANIEL… <NA>    A       ACTIVE 
 4      99 YADKIN  000000… AC80… TEMPLE  BRENDA  PUGH    <NA>    A       ACTIVE 
 5      99 YADKIN  000000… EN44… EDWARDS ROCKY   ALLEN   <NA>    A       ACTIVE 
 6      99 YADKIN  000000… BN36… HAWKINS COREY   ALAN    <NA>    A       ACTIVE 
 7      99 YADKIN  000000… BN27… LING    ANDREW  STUART  <NA>    A       ACTIVE 
 8      99 YADKIN  000000… ER48… SPICER  CHARLES STANLEY JR      A       ACTIVE 
 9      99 YADKIN  000000… CG17… WHITAK… SABRINA JOLEIG… <NA>    A       ACTIVE 
10      99 YADKIN  000000… ER48… GLEI    SALLY   COWIN   <NA>    A       ACTIVE 
# … with 28,446 more rows, 57 more variables: reason_cd <chr>,
#   voter_status_reason_desc <chr>, res_street_address <chr>,
#   res_city_desc <chr>, state_cd <chr>, zip_code <dbl>, mail_addr1 <chr>,
#   mail_addr2 <chr>, mail_addr3 <lgl>, mail_addr4 <lgl>, mail_city <chr>,
#   mail_state <chr>, mail_zipcode <chr>, full_phone_number <dbl>,
#   confidential_ind <chr>, registr_dt <date>, race_code <chr>,
#   ethnic_code <chr>, party_cd <chr>, gender_code <chr>, birth_year <dbl>, …

It’s July 14, 2022. That means that this dataset doesn’t have any records newer than that, so if we were describing it we’d need to include that information.

What about the most recent birth_year?

yadkin_voters %>% arrange(desc(birth_year))

# A tibble: 28,456 × 67
   count…¹ count…² voter…³ ncid  last_…⁴ first…⁵ middl…⁶ name_…⁷ statu…⁸ voter…⁹
     <dbl> <chr>   <chr>   <chr> <chr>   <chr>   <chr>   <chr>   <chr>   <chr>  
 1      99 YADKIN  000000… ER47… ADAMS   BLAIN   NOAH    <NA>    A       ACTIVE 
 2      99 YADKIN  000000… ER47… ALEXAN… PERRY   NATHAN… <NA>    A       ACTIVE 
 3      99 YADKIN  000000… ER48… ALVARE… KAREN   ESMERA… <NA>    A       ACTIVE 
 4      99 YADKIN  000000… ER48… ALVARE… PABLO   <NA>    <NA>    A       ACTIVE 
 5      99 YADKIN  000000… ER47… ARCADI… JAZMIN  <NA>    <NA>    A       ACTIVE 
 6      99 YADKIN  000000… ER47… ARELLA… ALEX    <NA>    <NA>    A       ACTIVE 
 7      99 YADKIN  000000… ER47… ARZATE… ELIDETH <NA>    <NA>    A       ACTIVE 
 8      99 YADKIN  000000… ER47… ARZATE… JESSICA <NA>    <NA>    A       ACTIVE 
 9      99 YADKIN  000000… ER47… BALL    ALEXIS  NYKOL   <NA>    A       ACTIVE 
10      99 YADKIN  000000… ER47… BAUTIS… ALEXAN… ROSE    <NA>    A       ACTIVE 
# … with 28,446 more rows, 57 more variables: reason_cd <chr>,
#   voter_status_reason_desc <chr>, res_street_address <chr>,
#   res_city_desc <chr>, state_cd <chr>, zip_code <dbl>, mail_addr1 <chr>,
#   mail_addr2 <chr>, mail_addr3 <lgl>, mail_addr4 <lgl>, mail_city <chr>,
#   mail_state <chr>, mail_zipcode <chr>, full_phone_number <dbl>,
#   confidential_ind <chr>, registr_dt <date>, race_code <chr>,
#   ethnic_code <chr>, party_cd <chr>, gender_code <chr>, birth_year <dbl>, …
…
The following objects are masked from 'package:base':

    date, intersect, setdiff, union

The floor_date function will allow us to group by month, instead of a single day.

yadkin_voters %>%
  mutate(registration_month = floor_date(registr_dt, "month")) %>%
  group_by(registration_month) %>%
   summarise(
    count=n()
  ) %>%
  arrange(registration_month)

# A tibble: 634 × 2
   registration_month count
   <date>             <int>
 1 1900-01-01            12
 2 1900-05-01             1
 3 1933-02-01             1
 4 1949-04-01             1
 5 1949-12-01             1
 6 1951-04-01             1
 7 1955-06-01             1
 8 1956-05-01             1
 9 1956-10-01             1
10 1960-04-01             1
# … with 624 more rows
…
