Data Journalism with R and the Tidyverse - 23 Combining and joining
…
In the best-case scenario, the two tables we want to join share a common column. In this case, both of our tables have a column called county that has the same characteristics: values in both look identical, including how they distinguish Baltimore City from Baltimore County. This is important, because joins work on exact matches.

We can do this join multiple ways and get a similar result. We can put the population file on the left and the registration data on the right and use a left join to get them all together. And we use by= to join by the correct column. I’m going to count the rows at the end. The reason I’m doing this is important: Rule 1 in joining data is having an idea of what you are expecting to get. So with a left join with population on the left, I have 24 rows, so I expect to get 24 rows when I’m done.

maryland_population %>% left_join(county_voters_2020, by="COUNTY") %>% nrow()

[1] 24

Remove the nrow and run it again for yourself. By default, dplyr will do a “natural” join, where it’ll match all the matching columns in both tables. So if we take out the by, it’ll use all the common columns between the tables. That may not be right in every instance but let’s try it. If it works, we should get 24 rows.

maryland_population %>% left_join(county_voters_2020)

Joining, by = "COUNTY"

# A tibble: 24 × 10
   COUNTY           POP2020  YEAR    DEM    REP   GRN   LIB   OTH    UNA  Total
   <chr>              <dbl> <dbl>  <dbl>  <dbl> <dbl> <dbl> <dbl>  <dbl>  <dbl>
 1 Allegany           68106  2020  12820  22530    74   204   434   7674  43736
 2 Anne Arundel      588261  2020 174494 135457   564  1922  3017  90162 405616
 3 Baltimore City    585708  2020 311610  30163   802   951  3709  52450 399685
 4 Baltimore County  854535  2020 313870 142534   898  2227  6303 100576 566408
 5 Calvert            92783  2020  24587  28181    89   332   617  14178  67984
 6 Caroline           33293  2020   6629  10039    33    86   182   4208  21177
 7 Carroll           172891  2020  33662  63967   155   670  1137  25770 125361
 8 Cecil             103725  2020  21601  30880   103   341   784  15110  68819
 9 Charles           166617  2020  72416  24711   112   349   865  19849 118302
10 Dorchester         32531  2020   9848   8730    19    78   164   3348  22187
# … with 14 more rows
…
Again, we can use a left_join to make our demographic data available. This time we’ll need to specify the two fields to join because they do not have identical names. We’ll use COUNTY from our population data and NAME from the demographic data, and the order matters - the first column is from the dataframe you name first.

maryland_population_with_voters_and_demographics <- maryland_population_with_voters %>% left_join(maryland_demographics, by=c("COUNTY"="NAME"))

Now we’ve got population data and demographic data by county. That means we can draw from both datasets in asking our questions. For example, we could see the counties with the highest 18+ Black population as a percentage of all population 18 and over and also the percentage of Democrats in that county.

We can get this by using mutate and arrange:

maryland_population_with_voters_and_demographics %>%
  mutate(pct_black_18_plus = (pop_black/pop_18_over)*100, pct_dems = (DEM/Total)*100) %>%
  arrange(desc(pct_black_18_plus)) %>%
  select(COUNTY, pct_black_18_plus, pct_dems)

# A tibble: 24 × 3
   COUNTY           pct_black_18_plus pct_dems
   <chr>                        <dbl>    <dbl>
 1 Prince George's               60.9     78.3
 2 Baltimore City                56.3     78.0
 3 Charles                       48.2     61.2
 4 Somerset                      39.0     41.8
 5 Baltimore County              28.8     55.4
 6 Dorchester                    26.2     44.4
 7 Wicomico                      25.6     42.3
 8 Howard                        18.7     52.4
 9 Montgomery                    18.1     61.0
10 Anne Arundel                  17.4     43.0
# … with 14 more rows

If you know Maryland political demographics, this result isn’t too surprising, but Somerset County - the state’s 2nd smallest in terms of population - stands out for its Black population, which is a greater percentage than Baltimore County and Montgomery County.

Let’s change that to look at Asian population:

maryland_population_with_voters_and_demographics %>%
  mutate(pct_asian_18_plus = (pop_asian/pop_18_over)*100, pct_dems = (DEM/Total)*100) %>%
  arrange(desc(pct_asian_18_plus)) %>%
  select(COUNTY, pct_asian_18_plus, pct_dems)

# A tibble: 24 × 3
   COUNTY           pct_asian_18_plus pct_dems
   <chr>                        <dbl>    <dbl>
 1 Howard                       19.4      52.4
 2 Montgomery                   16.0      61.0
 3 Baltimore County              6.34     55.4
 4 Frederick                     4.88     38.9
 5 Prince George's               4.68     78.3
 6 Anne Arundel                  4.52     43.0
 7 Baltimore City                4.17     78.0
 8 Charles                       3.55     61.2
 9 Harford                       3.15     35.4
10 St. Mary's                    3.13     35.7
# … with 14 more rows
…
