Data Journalism with R and the Tidyverse - 16 Mutating data
…
ℹ Use `spec()` to retrieve the full column specification for this data.
ℹ Specify the column types or set `show_col_types = FALSE` to quiet this message.

First, let’s add a column called percent_election_day for the percentage of votes that were cast on election day for each candidate result in a county. The code to calculate a percentage is pretty simple. Remember, with summarize, we used n() to count things. With mutate, we use very similar syntax to calculate a new value – a new column of data – using other values in our dataset.

If we look at what we got when we imported the data, you’ll see there’s election_day as the numerator, and we’ll use votes as the denominator. We can simply things by only selecting a few columns.

primary_18 %>%
  select(office, district, name_raw, party, jurisdiction, election_day, votes) %>%
  mutate(
  percent_election_day = election_day/votes
)

# A tibble: 1,778 × 8
   office                  district name_raw party juris…¹ elect…² votes perce…³
   <chr>                   <chr>    <chr>    <chr> <chr>     <dbl> <dbl>   <dbl>
 1 Governor / Lt. Governor <NA>     Rushern… DEM   Allega…     324   413   0.785
 2 Governor / Lt. Governor <NA>     Ralph J… DEM   Allega…     106   122   0.869
 3 Governor / Lt. Governor <NA>     Ben Jea… DEM   Allega…     979  1170   0.837
 4 Governor / Lt. Governor <NA>     James H… DEM   Allega…      99   106   0.934
 5 Governor / Lt. Governor <NA>     Valerie… DEM   Allega…     118   159   0.742
 6 Governor / Lt. Governor <NA>     Rich Ma… DEM   Allega…     133   169   0.787
 7 Governor / Lt. Governor <NA>     Alec Ro… DEM   Allega…     175   218   0.803
 8 Governor / Lt. Governor <NA>     Jim Shea DEM   Allega…     239   284   0.842
 9 Governor / Lt. Governor <NA>     Krish O… DEM   Allega…     364   462   0.788
10 Comptroller             <NA>     Peter F… DEM   Allega…    2518  3077   0.818
# … with 1,768 more rows, and abbreviated variable names ¹​jurisdiction,
#   ²​election_day, ³​percent_election_day

Now we’ve got our percent_election_day column. But what do you see right away? Do those numbers look like we expect them to? No. They’re a decimal expressed as a percentage. So let’s fix that by multiplying by 100.

primary_18 %>%
  select(office, district, name_raw, party, jurisdiction, election_day, votes) %>%
  mutate(
  percent_election_day = (election_day/votes)*100
)

# A tibble: 1,778 × 8
   office                  district name_raw party juris…¹ elect…² votes perce…³
   <chr>                   <chr>    <chr>    <chr> <chr>     <dbl> <dbl>   <dbl>
 1 Governor / Lt. Governor <NA>     Rushern… DEM   Allega…     324   413    78.5
 2 Governor / Lt. Governor <NA>     Ralph J… DEM   Allega…     106   122    86.9
 3 Governor / Lt. Governor <NA>     Ben Jea… DEM   Allega…     979  1170    83.7
 4 Governor / Lt. Governor <NA>     James H… DEM   Allega…      99   106    93.4
 5 Governor / Lt. Governor <NA>     Valerie… DEM   Allega…     118   159    74.2
 6 Governor / Lt. Governor <NA>     Rich Ma… DEM   Allega…     133   169    78.7
 7 Governor / Lt. Governor <NA>     Alec Ro… DEM   Allega…     175   218    80.3
 8 Governor / Lt. Governor <NA>     Jim Shea DEM   Allega…     239   284    84.2
 9 Governor / Lt. Governor <NA>     Krish O… DEM   Allega…     364   462    78.8
10 Comptroller             <NA>     Peter F… DEM   Allega…    2518  3077    81.8
# … with 1,768 more rows, and abbreviated variable names ¹​jurisdiction,
#   ²​election_day, ³​percent_election_day

Now, does this ordering do anything for us? No. Let’s fix that with arrange.

primary_18 %>%
  select(office, district, name_raw, party, jurisdiction, election_day, votes) %>%
  mutate(
  percent_election_day = (election_day/votes)*100
)  %>% arrange(desc(percent_election_day))

# A tibble: 1,778 × 8
   office                    distr…¹ name_…² party juris…³ elect…⁴ votes perce…⁵
   <chr>                     <chr>   <chr>   <chr> <chr>     <dbl> <dbl>   <dbl>
 1 U.S. Senator              <NA>    Erik J… DEM   Garrett       8     8   100  
 2 U.S. Senator              <NA>    Albert… REP   Allega…      69    71    97.2
 3 House of Delegates        01A     James … REP   Allega…     140   148    94.6
 4 Governor / Lt. Governor   <NA>    James … DEM   Allega…      99   106    93.4
 5 House of Delegates        38C     Jim Sh… REP   Wicomi…      23    25    92  
 6 House of Delegates        01A     Wendel… REP   Allega…     947  1031    91.9
 7 U.S. Senator              <NA>    Richar… DEM   Garrett      11    12    91.7
 8 U.S. Senator              <NA>    Christ… REP   Allega…     863   948    91.0
 9 U.S. Senator              <NA>    Marcia… DEM   Allega…     113   125    90.4
10 Representative in Congre… 06      Christ… DEM   Allega…      37    41    90.2
# … with 1,768 more rows, and abbreviated variable names ¹​district, ²​name_raw,
#   ³​jurisdiction, ⁴​election_day, ⁵​percent_election_day

So now we have results ordered by percent_election_day with the highest percentage first. To see the lowest percentage first, we can reverse that arrange function.

primary_18 %>%
  select(office, district, name_raw, party, jurisdiction, election_day, votes) %>%
  mutate(
  percent_election_day = (election_day/votes)*100
)  %>% arrange(percent_election_day)

# A tibble: 1,778 × 8
   office                    distr…¹ name_…² party juris…³ elect…⁴ votes perce…⁵
   <chr>                     <chr>   <chr>   <chr> <chr>     <dbl> <dbl>   <dbl>
 1 Governor / Lt. Governor   <NA>    Valeri… DEM   Talbot       38    89    42.7
 2 Governor / Lt. Governor   <NA>    Rich M… DEM   Talbot       84   192    43.8
 3 Governor / Lt. Governor   <NA>    Rich M… DEM   Kent         40    85    47.1
 4 Governor / Lt. Governor   <NA>    Rich M… DEM   Garrett      32    67    47.8
 5 Governor / Lt. Governor   <NA>    Jim Sh… DEM   Talbot      168   345    48.7
 6 U.S. Senator              <NA>    Blaine… REP   Talbot       41    84    48.8
 7 House of Delegates        43      Urcill… DEM   Baltim…     550  1122    49.0
 8 Governor / Lt. Governor   <NA>    Rusher… DEM   Talbot      286   577    49.6
 9 House of Delegates        21      Mary A… DEM   Anne A…     407   816    49.9
10 Representative in Congre… 06      Christ… DEM   Garrett       3     6    50  
# … with 1,768 more rows, and abbreviated variable names ¹​district, ²​name_raw,
#   ³​jurisdiction, ⁴​election_day, ⁵​percent_election_day
…
