Data Journalism with R and the Tidyverse - 20 Data Cleaning Part III: Open Refine
…
Let’s load some campaign expenditure data focused on food-related expenses in Washington, D.C. Essentially, where campaigns spend their money on D.C. restaurants.

Now let’s try and group and count the number of expenditures by recipient. To make it a bit more manageable, let’s use another string function from stringr and filter for recipients that start with the uppercase “W” or lowercase “w” using the function str_detect() with a regular expression.

The filter function in the codeblock below says: look in the city column, and pluck out any value that starts with (the “^” symbol means “starts with”) a lowercase “w” OR (the vertical “|”, called a pipe, means OR) an uppercase “W”.

dc_food %>%
  group_by(recipient_name) %>%
  summarise(
    count=n()
  ) %>%
  filter(str_detect(recipient_name, '^w|^W')) %>% 
  arrange(recipient_name)

# A tibble: 50 × 2
   recipient_name      count
   <chr>               <int>
 1 W HOTELS                3
 2 W. MILLAR & CO          1
 3 W. MILLAR & CO.         5
 4 WA METRO                1
 5 WAGSHAL'S DELI          1
 6 WALMART SUPERCENTER    13
 7 WALTER'S SPORTS BAR     1
 8 WALTERS                 1
 9 WALTERS SPORT           1
10 WALTERS SPORTS          1
# … with 40 more rows
…
By using the Open Refine package for R, refinr, our hope is that it can identify and standardize the data with a little more ease.

The first merging technique that’s part of the refinr package we’ll try is the key_collision_merge.

The key collision merge function takes each string and extracts the key parts of it. It then puts every key in a bin based on the keys matching.

One rule you should follow when using this is: do not overwrite your original fields. Always work on a copy. If you overwrite your original field, how will you know if it did the right thing? How can you compare it to your original data? To follow this, I’m going to mutate a new field called clean_city and put the results of key collision merge there.

cleaned_dc_food <- dc_food %>%
  mutate(recipient_clean=key_collision_merge(recipient_name)) %>%
  select(recipient_name, recipient_clean, everything())

cleaned_dc_food

# A tibble: 13,108 × 50
   recipient_name        recipient_clean committee_id committee_name report_year
   <chr>                 <chr>           <chr>        <chr>                <dbl>
 1 ST. REGIS HOTEL       ST. REGIS HOTEL C00658385    MARK GREEN FO…        2021
 2 HARKER, GRAY          HARKER, GRAY    C00536540    JOBS, FREEDOM…        2021
 3 REPUBLICAN NATIONAL … REPUBLICAN NAT… C00055582    NY REPUBLICAN…        2021
 4 JOE'S SEAFOOD PRIME … JOE'S SEAFOOD,… C00551853    OORAH! POLITI…        2021
 5 NATIONAL DEMOCRATIC … NATIONAL DEMOC… C00391029    JIM COSTA FOR…        2021
 6 NATIONAL DEMOCRATIC … NATIONAL DEMOC… C00454694    MARCIA FUDGE …        2021
 7 CAFE MILANO           CAFE MILANO     C00391029    JIM COSTA FOR…        2021
 8 CAPITOL HILL CLUB     CAPITOL HILL C… C00383828    CONAWAY FOR C…        2021
 9 CAPITOL HILL CLUB     CAPITOL HILL C… C00725465    CLIFF BENTZ F…        2021
10 CAPITOL HILL CLUB     CAPITOL HILL C… C00383828    CONAWAY FOR C…        2021
# … with 13,098 more rows, and 45 more variables: report_type <chr>,
#   image_number <dbl>, line_number <chr>, transaction_id <chr>,
#   file_number <dbl>, entity_type <chr>, entity_type_desc <chr>,
#   unused_recipient_committee_id <chr>, recipient_committee_id <chr>,
#   recipient_state <chr>, beneficiary_committee_name <chr>,
#   national_committee_nonfederal_account <lgl>, disbursement_type <lgl>,
#   disbursement_type_description <lgl>, disbursement_description <chr>, …

To examine changes refinr made, let’s examine the changes it made to cities that start with the letter “W”.

cleaned_dc_food %>%
  group_by(recipient_name, recipient_clean) %>%
  summarise(
    count=n()
  ) %>%
  filter(str_detect(recipient_clean, "^w|^W")) %>%
  arrange(recipient_clean)

`summarise()` has grouped output by 'recipient_name'. You can override using
the `.groups` argument.

# A tibble: 52 × 3
# Groups:   recipient_name [52]
   recipient_name      recipient_clean     count
   <chr>               <chr>               <int>
 1 W HOTELS            W HOTELS                3
 2 W. MILLAR & CO      W. MILLAR & CO.         1
 3 W. MILLAR & CO.     W. MILLAR & CO.         5
 4 WA METRO            WA METRO                1
 5 WAGSHAL'S DELI      WAGSHAL'S DELI          1
 6 WALMART SUPERCENTER WALMART SUPERCENTER    13
 7 WALTERS             WALTERS                 1
 8 WALTERS SPORT       WALTERS SPORT           1
 9 WALTERS SPORTS      WALTERS SPORTS          1
10 WALTER'S SPORTS BAR WALTERS SPORTS BAR      1
# … with 42 more rows

You can see several changes on the second page of results, including that refinr made “PIZZA, WE THE” into “WE THE PIZZA” which is pretty smart. Other potential changes, grouping together “WASHINGTON NATIONALS” and “WASHINGTON NATIONALS BASEBALL CLUB”, didn’t happen. Key collision will do well with different cases, but all of our records are upper case.

There’s another merging algorithim that’s part of refinr that works a bit differently, called n_gram_merge(). Let’s try applying that one.

cleaned_dc_food <- dc_food %>%
  mutate(recipient_clean=n_gram_merge(recipient_name)) %>%
  select(recipient_name, recipient_clean, everything())

cleaned_dc_food

# A tibble: 13,108 × 50
   recipient_name        recipient_clean committee_id committee_name report_year
   <chr>                 <chr>           <chr>        <chr>                <dbl>
 1 ST. REGIS HOTEL       ST. REGIS HOTEL C00658385    MARK GREEN FO…        2021
 2 HARKER, GRAY          HARKER, GRAY    C00536540    JOBS, FREEDOM…        2021
 3 REPUBLICAN NATIONAL … REPUBLICAN NAT… C00055582    NY REPUBLICAN…        2021
 4 JOE'S SEAFOOD PRIME … JOE'S SEAFOOD,… C00551853    OORAH! POLITI…        2021
 5 NATIONAL DEMOCRATIC … NATIONAL DEMOC… C00391029    JIM COSTA FOR…        2021
 6 NATIONAL DEMOCRATIC … NATIONAL DEMOC… C00454694    MARCIA FUDGE …        2021
 7 CAFE MILANO           CAFE MILANO     C00391029    JIM COSTA FOR…        2021
 8 CAPITOL HILL CLUB     CAPITOL HILL C… C00383828    CONAWAY FOR C…        2021
 9 CAPITOL HILL CLUB     CAPITOL HILL C… C00725465    CLIFF BENTZ F…        2021
10 CAPITOL HILL CLUB     CAPITOL HILL C… C00383828    CONAWAY FOR C…        2021
# … with 13,098 more rows, and 45 more variables: report_type <chr>,
#   image_number <dbl>, line_number <chr>, transaction_id <chr>,
#   file_number <dbl>, entity_type <chr>, entity_type_desc <chr>,
#   unused_recipient_committee_id <chr>, recipient_committee_id <chr>,
#   recipient_state <chr>, beneficiary_committee_name <chr>,
#   national_committee_nonfederal_account <lgl>, disbursement_type <lgl>,
#   disbursement_type_description <lgl>, disbursement_description <chr>, …

To examine changes refinr made with this algorithm, let’s again look at cities that start with the letter “A”. Examining Aberdeen and Annapolis, we see there wasn’t a substantial change from the previous method.

cleaned_dc_food %>%
  group_by(recipient_name, recipient_clean) %>%
  summarise(
    count=n()
  ) %>%
  filter(str_detect(recipient_clean, "^w|^W")) %>%
  arrange(recipient_clean)

`summarise()` has grouped output by 'recipient_name'. You can override using
the `.groups` argument.

# A tibble: 51 × 3
# Groups:   recipient_name [51]
   recipient_name      recipient_clean     count
   <chr>               <chr>               <int>
 1 W HOTELS            W HOTELS                3
 2 W. MILLAR & CO      W. MILLAR & CO.         1
 3 W. MILLAR & CO.     W. MILLAR & CO.         5
 4 WA METRO            WA METRO                1
 5 WAGSHAL'S DELI      WAGSHAL'S DELI          1
 6 WALMART SUPERCENTER WALMART SUPERCENTER    13
 7 WALTERS             WALTERS                 1
 8 WALTERS SPORT       WALTERS SPORT           1
 9 WALTERS SPORTS      WALTERS SPORT           1
10 WALTER'S SPORTS BAR WALTERS SPORTS BAR      1
# … with 41 more rows
…
