Data Journalism with R and the Tidyverse - 22 Cleaning Data Part IV: PDFs
…
You can now export that extracted table to a CSV file using the “Export” button. And then we can read it into R:

voters_by_county <- read_csv("data/tabula-Eligible Active Voters by County - PG20.csv")

Rows: 25 Columns: 10
── Column specification ────────────────────────────────────────────────────────
Delimiter: ","
chr (1): County

ℹ Use `spec()` to retrieve the full column specification for this data.
ℹ Specify the column types or set `show_col_types = FALSE` to quiet this message.

voters_by_county

# A tibble: 25 × 10
   County              DEM    REP   BAR   GRN   LIB   WCP   OTH    UNA  TOTAL
   <chr>             <dbl>  <dbl> <dbl> <dbl> <dbl> <dbl> <dbl>  <dbl>  <dbl>
 1 Allegany          12820  22530    20    74   204    19   395   7674  43736
 2 Anne Arundel     174494 135457   105   564  1922   197  2715  90162 405616
 3 Baltimore City   311610  30163   130   802   951   290  3289  52450 399685
 4 Baltimore County 313870 142534   134   898  2227   297  5872 100576 566408
 5 Calvert           24587  28181    20    89   332    30   567  14178  67984
 6 Caroline           6629  10039     2    33    86    17   163   4208  21177
 7 Carroll           33662  63967    27   155   670    38  1072  25770 125361
 8 Cecil             21601  30880     8   103   341    49   727  15110  68819
 9 Charles           72416  24711    19   112   349    83   763  19849 118302
10 Dorchester         9848   8730     4    19    78    12   148   3348  22187
# … with 15 more rows
…
camden_2022 <- read_csv("data/tabula-camden_county_election_results.csv") %>% clean_names()

New names:
Rows: 23 Columns: 4
── Column specification
──────────────────────────────────────────────────────── Delimiter: "," chr
(3): ...1, Voters, Turnout dbl (1): Cast
ℹ Use `spec()` to retrieve the full column specification for this data. ℹ
Specify the column types or set `show_col_types = FALSE` to quiet this message.
• `` -> `...1`

camden_2022

# A tibble: 23 × 4
   x1                        voters  cast turnout
   <chr>                     <chr>  <dbl> <chr>  
 1 Jurisdiction Wide         <NA>      NA <NA>   
 2 BARNUMTON                 1065     360 33.80% 
 3 CAMDENTON 1               2618     775 29.60% 
 4 CAMDENTON 2               2530     711 28.10% 
 5 CAMDENTON 3 & HA HA TONKA 2952     840 28.46% 
 6 CLIMAX SPRINGS            1144     354 30.94% 
 7 DECATURVILLE              1272     461 36.24% 
 8 FREEDOM                   594      224 37.71% 
 9 GREENVIEW                 1551     570 36.75% 
10 HILLHOUSE                 503      167 33.20% 
# … with 13 more rows
…
Warning in mask$eval_all_mutate(quo): NAs introduced by coercion

Warning in mask$eval_all_mutate(quo): NAs introduced by coercion

camden_2022

# A tibble: 23 × 4
   precinct                  voters  cast turnout
   <chr>                      <dbl> <dbl>   <dbl>
 1 Jurisdiction Wide             NA    NA    NA  
 2 BARNUMTON                   1065   360    33.8
 3 CAMDENTON 1                 2618   775    29.6
 4 CAMDENTON 2                 2530   711    28.1
 5 CAMDENTON 3 & HA HA TONKA   2952   840    28.5
 6 CLIMAX SPRINGS              1144   354    30.9
 7 DECATURVILLE                1272   461    36.2
 8 FREEDOM                      594   224    37.7
 9 GREENVIEW                   1551   570    36.8
10 HILLHOUSE                    503   167    33.2
# … with 13 more rows

Ok, now we have numbers. Next we’ll get rid of the rows where cast is NA (why not voters?). To do that, we’ll use the inverse of the is.na function by placing an exclamation point before it (you can read that filter as “where cast is NOT NA”).

camden_2022 <- camden_2022 %>% filter(!is.na(cast))

camden_2022

# A tibble: 21 × 4
   precinct                  voters  cast turnout
   <chr>                      <dbl> <dbl>   <dbl>
 1 BARNUMTON                   1065   360    33.8
 2 CAMDENTON 1                 2618   775    29.6
 3 CAMDENTON 2                 2530   711    28.1
 4 CAMDENTON 3 & HA HA TONKA   2952   840    28.5
 5 CLIMAX SPRINGS              1144   354    30.9
 6 DECATURVILLE                1272   461    36.2
 7 FREEDOM                      594   224    37.7
 8 GREENVIEW                   1551   570    36.8
 9 HILLHOUSE                    503   167    33.2
10 HORSESHOE BEND              4100  1230    30  
# … with 11 more rows
…
