Data Journalism with R and the Tidyverse - 19 Scraping data with Rvest
…
The entire table that we want of results is actually contained inside an html <table>. It has a <tbody> that contains one row <tr> per county.

Because it’s inside of a table, and not some other kind of element (like a <div>), rvest has a special function for easily extracting and converting html tables, called html_table(). This function extracts all the html tables on the page, but this page only has one so we’re good.

# read in the html and extract all the tables
results <- ag_url %>%
  read_html() %>%
  html_table()

# show the dataframe

results

[[1]]
# A tibble: 25 × 4
   Jurisdiction     Michael Anthony Peroutka\r\n\r\n\r\nRepubl…¹ Antho…² Other…³
   <chr>            <chr>                                        <chr>   <chr>  
 1 Allegany         14,382                                       6,994   16     
 2 Anne Arundel     91,718                                       121,096 433    
 3 Baltimore City   14,594                                       128,282 288    
 4 Baltimore County 100,480                                      170,858 467    
 5 Calvert          20,275                                       16,647  41     
 6 Caroline         7,128                                        3,475   13     
 7 Carroll          44,195                                       26,928  112    
 8 Cecil            20,750                                       11,844  35     
 9 Charles          16,042                                       37,945  55     
10 Dorchester       6,615                                        4,784   16     
# … with 15 more rows, and abbreviated variable names
#   ¹​`Michael Anthony Peroutka\r\n\r\n\r\nRepublican`,
#   ²​`Anthony G. Brown\r\n\r\n\r\nDemocratic`, ³​`Other Write-Ins`
…
# Read in all html from table, store all tables on page as nested list of dataframes.
results <- ag_url %>%
  read_html() %>%
  html_table()

# Just keep the first dataframe in our list

results <- results[[1]]

# show the dataframe

results

# A tibble: 25 × 4
   Jurisdiction     Michael Anthony Peroutka\r\n\r\n\r\nRepubl…¹ Antho…² Other…³
   <chr>            <chr>                                        <chr>   <chr>  
 1 Allegany         14,382                                       6,994   16     
 2 Anne Arundel     91,718                                       121,096 433    
 3 Baltimore City   14,594                                       128,282 288    
 4 Baltimore County 100,480                                      170,858 467    
 5 Calvert          20,275                                       16,647  41     
 6 Caroline         7,128                                        3,475   13     
 7 Carroll          44,195                                       26,928  112    
 8 Cecil            20,750                                       11,844  35     
 9 Charles          16,042                                       37,945  55     
10 Dorchester       6,615                                        4,784   16     
# … with 15 more rows, and abbreviated variable names
#   ¹​`Michael Anthony Peroutka\r\n\r\n\r\nRepublican`,
#   ²​`Anthony G. Brown\r\n\r\n\r\nDemocratic`, ³​`Other Write-Ins`
…
# Standardize column headers, remove last row

results <- results[[1]] %>%
  clean_names() %>%
  rename(peroutka = 2, brown = 3, write_ins = 4) %>%
  slice(-25) %>%
  mutate(peroutka = as.numeric(gsub(",","", peroutka))) %>%
  mutate(brown = as.numeric(gsub(",","", brown))) %>%
  mutate(write_ins = as.numeric(gsub(",","", write_ins)))

# show the dataframe
results

# A tibble: 24 × 4
   jurisdiction     peroutka  brown write_ins
   <chr>               <dbl>  <dbl>     <dbl>
 1 Allegany            14382   6994        16
 2 Anne Arundel        91718 121096       433
 3 Baltimore City      14594 128282       288
 4 Baltimore County   100480 170858       467
 5 Calvert             20275  16647        41
 6 Caroline             7128   3475        13
 7 Carroll             44195  26928       112
 8 Cecil               20750  11844        35
 9 Charles             16042  37945        55
10 Dorchester           6615   4784        16
# … with 14 more rows
…
